<svg width="48" height="48" viewBox="0 0 48 48" fill="none" xmlns="http://www.w3.org/2000/svg">
<circle cx="24" cy="24" r="24" fill="#DFF2EA"/>
<circle cx="24" cy="24" r="24" fill="#DFF2EA"/>
<mask id="mask0" mask-type="alpha" maskUnits="userSpaceOnUse" x="0" y="0" width="48" height="48">
<circle cx="24" cy="24" r="24" fill="#DFF2EA"/>
</mask>
<g mask="url(#mask0)">
<path d="M41.0376 40.4797C40.3394 38.9901 40.939 38.6234 40.51 37.0505C40.2307 36.0264 39.6066 35.6124 39.3928 34.754C39.1896 33.9389 39.5445 32.5191 39.3307 31.8368C38.9445 30.6041 38.4601 30.2785 38.2135 29.261C37.9652 28.2368 38.6169 27.461 38.3997 26.3748C38.1275 25.0138 37.6384 24.4563 37.4377 23.737C37.0652 22.4025 37.1794 22.0688 37.2204 20.9749C37.3135 18.4922 36.3667 15.4447 35.6377 13.8992C34.8125 12.1496 33.7293 11.1731 32.443 10.6406H23.7207V47.4158C33.9619 47.5089 42.341 44.4365 42.341 44.4365C42.31 41.7676 41.8479 42.2082 41.0376 40.4797Z" fill="#734A3E"/>
<path d="M14.9986 10.6406C13.7122 11.1731 12.6292 12.1496 11.8039 13.8992C11.0749 15.4447 10.1281 18.4922 10.2212 20.9749C10.2621 22.0687 10.3764 22.4024 10.004 23.737C9.80324 24.4563 9.31409 25.0139 9.04195 26.3748C8.82475 27.461 9.47646 28.2368 9.22816 29.261C8.98153 30.2785 8.49712 30.6041 8.11094 31.8368C7.89708 32.5192 8.25198 33.9389 8.04884 34.754C7.83498 35.6124 7.21092 36.0264 6.93162 37.0505C6.5026 38.6234 7.10227 38.9901 6.40401 40.4797C5.59375 42.2081 5.13159 41.7676 5.10059 44.4365C5.10059 44.4365 13.4797 47.5089 23.7209 47.4158V10.6406H14.9986Z" fill="#623F33"/>
<path d="M37.535 47.8688L37.2572 45.7849L36.6481 41.2167C36.4825 39.9744 35.703 38.8988 34.5741 38.3544L31.7009 36.9691C31.4213 36.8343 31.0956 36.9566 30.957 37.2301L29.2084 36.5867C28.6001 36.3839 28.1898 35.8147 28.1898 35.1735V32.7713L31.3982 31.4344C33.0634 30.7405 34.1481 29.1134 34.1481 27.3093V26.5645C35.3822 26.5645 36.3826 25.5641 36.3826 24.33C36.3826 23.096 35.3822 22.0956 34.1481 22.0956V22.0893C34.1494 22.0906 34.1507 22.0917 34.1519 22.0929C31.4743 19.4209 23.8639 19.8546 23.724 16.2383C23.5841 19.8558 15.9685 19.4205 13.2934 22.0956C12.0593 22.0956 11.0589 23.096 11.0589 24.33C11.0589 25.5641 12.0593 26.5645 13.2934 26.5645V27.3093C13.2934 29.1133 14.3781 30.7405 16.0434 31.4344L19.2519 32.7713V35.1734C19.2519 35.8146 18.8416 36.3838 18.2333 36.5866L16.4847 37.23C16.3461 36.9565 16.0204 36.8342 15.7408 36.969L12.8676 38.3543C11.7387 38.8987 10.9592 39.9743 10.7936 41.2166L10.1845 45.7848L9.9067 47.8687C9.72804 49.2083 10.77 50.3985 12.1214 50.3985H35.32C36.6715 50.3985 37.7136 49.2083 37.535 47.8688Z" fill="#FDC88E"/>
<path d="M19.251 32.707V35.1713C19.251 35.7013 18.9701 36.1816 18.5293 36.4468C24.7599 37.5234 28.1886 32.7073 28.1888 32.707H19.251Z" fill="#F5B97A"/>
<path d="M37.535 47.8691L36.6481 41.2169C36.4825 39.9745 35.703 38.8989 34.5741 38.3546L31.7009 36.9693C31.4116 36.8298 31.0724 36.965 30.9427 37.2588C29.0587 41.5252 25.8311 43.5092 23.7207 44.4405C21.6104 43.5093 18.3828 41.5252 16.4989 37.2587C16.3692 36.9649 16.0301 36.8298 15.7408 36.9692L12.8676 38.3545C11.7386 38.8988 10.9592 39.9744 10.7936 41.2168L9.90668 47.869C9.72812 49.2084 10.7701 50.3987 12.1216 50.3987H35.3202C36.6715 50.3988 37.7135 49.2085 37.535 47.8691Z" fill="#05944F"/>
<path d="M13.293 26.5665C14.5271 26.5665 15.5275 25.5661 15.5275 24.3321C15.5275 23.098 14.5271 22.0977 13.293 22.0977C12.059 22.0977 11.0586 23.098 11.0586 24.3321C11.0586 25.5661 12.059 26.5665 13.293 26.5665Z" fill="#FDC88E"/>
<path d="M34.1478 22.0965V20.6069C34.1478 18.5502 32.4805 16.8828 30.4237 16.8828H17.0171C14.9603 16.8828 13.293 18.5502 13.293 20.6069V22.0965C12.059 22.0965 11.0586 23.0969 11.0586 24.3309C11.0586 25.565 12.059 26.5654 13.293 26.5654V27.3102C13.293 29.1142 14.3778 30.7414 16.0431 31.4354L20.8556 33.4406C21.7633 33.8188 22.737 34.0135 23.7203 34.0135C24.7037 34.0135 25.6772 33.8188 26.585 33.4406L31.3978 31.4353C33.0631 30.7415 34.1478 29.1143 34.1478 27.3102V26.5654C35.3819 26.5654 36.3823 25.565 36.3823 24.3309C36.3823 23.0969 35.3819 22.0965 34.1478 22.0965Z" fill="#FFD7A3"/>
<path d="M24.4558 16.4173L23.348 15.7656C23.348 15.7656 21.4256 18.2362 16.2723 19.4897C13.6887 20.1181 13.293 22.0965 13.293 22.0965H13.2929C12.059 22.0966 11.0586 23.097 11.0586 24.331C11.0586 25.565 12.059 26.5654 13.293 26.5654V27.3102C13.293 29.1144 14.3778 30.7415 16.0431 31.4354L20.8555 33.4406C21.091 33.5387 21.3314 33.6233 21.5749 33.6965C19.4481 32.1407 18.0324 30.7806 17.2028 29.8913C16.5994 29.2442 16.2723 28.3904 16.2723 27.5056V22.0034C18.3205 20.4828 23.4411 20.669 24.4558 16.4173Z" fill="#FDC88E"/>
<path d="M18.5075 25.0743C18.0979 25.0743 17.7627 24.7391 17.7627 24.3295V23.5847C17.7627 23.175 18.0979 22.8398 18.5075 22.8398C18.9172 22.8398 19.2523 23.175 19.2523 23.5847V24.3295C19.2523 24.7391 18.9172 25.0743 18.5075 25.0743Z" fill="#623F33"/>
<path d="M28.9352 25.0743C28.5256 25.0743 28.1904 24.7391 28.1904 24.3295V23.5847C28.1904 23.175 28.5256 22.8398 28.9352 22.8398C29.3449 22.8398 29.6801 23.175 29.6801 23.5847V24.3295C29.6801 24.7391 29.3449 25.0743 28.9352 25.0743Z" fill="#623F33"/>
<path d="M23.7203 30.3058C22.3961 30.3058 21.1575 29.9799 20.3221 29.4115C19.9821 29.1802 19.8936 28.7169 20.1253 28.3769C20.3562 28.0372 20.82 27.9488 21.16 28.1801C21.7455 28.5783 22.7027 28.8162 23.7203 28.8162C24.7379 28.8162 25.6951 28.5783 26.2806 28.1801C26.6213 27.9481 27.0839 28.0369 27.3152 28.3769C27.5468 28.7169 27.4585 29.1802 27.1185 29.4115C26.2833 29.9799 25.0445 30.3058 23.7203 30.3058Z" fill="#E4B07B"/>
<path d="M24.1963 45.4517C27.7947 43.7599 30.5482 40.9124 32.2115 37.2155L31.7009 36.9693C31.4116 36.8298 31.0725 36.965 30.9428 37.2588C29.0589 41.5252 25.8312 43.5092 23.7209 44.4405C21.6105 43.5093 18.3829 41.5252 16.4991 37.2587C16.3694 36.9649 16.0302 36.8298 15.7409 36.9692L15.2305 37.2154C16.8937 40.9123 19.6471 43.7598 23.2456 45.4516L23.7209 45.6752L24.1963 45.4517Z" fill="#06C167"/>
<path d="M15.5279 47.2063C15.5279 46.3782 15.2518 45.5737 14.7434 44.9199L11.0809 40.2109C10.9415 40.5278 10.8405 40.8637 10.7936 41.2155L9.90668 47.8677C9.72812 49.2072 10.7701 50.3975 12.1216 50.3975H15.5279V47.2063Z" fill="#06C167"/>
<path d="M31.9141 47.2063C31.9141 46.3782 32.1901 45.5737 32.6985 44.9199L36.3611 40.2109C36.5004 40.5278 36.6014 40.8637 36.6484 41.2155L37.5352 47.8677C37.7138 49.2072 36.6718 50.3975 35.3204 50.3975H31.9141V47.2063Z" fill="#06C167"/>
<path d="M25.962 7.19922C24.4498 7.19922 23.7586 7.90465 23.7242 7.94059C23.6899 7.90465 22.9987 7.19922 21.4864 7.19922C17.3667 7.19922 8.21943 12.8784 11.8038 21.3507L13.2935 22.0955C15.9686 19.4204 23.5842 19.8557 23.7242 16.2381C23.8642 19.8557 31.4798 19.4204 34.1549 22.0955L35.6446 21.3507C39.229 12.8784 30.0818 7.19922 25.962 7.19922Z" fill="#734A3E"/>
<path d="M21.4864 7.19922C17.3667 7.19922 8.21943 12.8784 11.8038 21.3507V22.0955H13.2935C13.8811 21.5078 14.7075 21.0704 15.6406 20.7071C16.1331 11.9009 20.899 7.26132 23.7209 7.94403L23.723 7.93975C23.7001 7.91526 23.0119 7.19922 21.4864 7.19922Z" fill="#623F33"/>
</g>
</svg>
