{
  "datos": {
    "abonos": [
        {
            "idabonos": "1",
            "month": "Enero",
            "abonado": true,
            "percent" : 70,
            "amount": "1,546.00"
        },
        {
            "idabonos": "2",
            "month": "Febrero",
            "abonado": false,
            "percent" : 100,
            "amount": "1,546.00"
        },
        {
            "idabonos": "3",
            "month": "Marzo",
            "abonado": false,
            "percent" : 30,
            "amount": "1,546.00"
        },
        {
            "idabonos": "4",
            "month": "Abril",
            "abonado": false,
            "percent" : 50,
            "amount": "1,546.00"
        },
        {
            "idabonos": "5",
            "month": "Mayo",
            "abonado": false,
            "percent" : 70,
            "amount": "1,546.00"
        },
        {
            "idabonos": "6",
            "month": "Junio",
            "abonado": false,
            "percent" : 30,
            "amount": "1,546.00"
        },
        {
            "idabonos": "7",
            "month": "Julio",
            "abonado": false,
            "percent" : 20,
            "amount": "1,546.00"
        },
        {
            "idabonos": "8",
            "month": "Agosto",
            "abonado": false,
            "percent" : 70,
            "amount": "1,546.00"
        },
        {
            "idabonos": "9",
            "month": "Setiembre",
            "abonado": false,
            "percent" : 80,
            "amount": "1,546.00"
        },
        {
            "idabonos": "10",
            "month": "Octubre",
            "abonado": false,
            "percent" : 65,
            "amount": "1,546.00"
        },
        {
            "idabonos": "11",
            "month": "Noviembre",
            "abonado": false,
            "percent" : 45,
            "amount": "1,546.00"
        },
        {
            "idabonos": "12",
            "month": "Diciembre",
            "abonado": false,
            "percent" : 85,
            "amount": "1,546.00"
        }        
    ]}
}