{
    "datos": {
      "mvtosCorriente": [
          {
              "idcorriente": "cur1",
              "fecha": "30 de septiembre 2022",
              "descripción": "Ingreso en cuenta corriente",
              "status": true,
              "monto": "$9,728.40",
              "saldo" : "$209,728.40"
          },
          {
              "idcorriente": "cur2",
              "fecha": "25 de septiembre 2022",
              "descripción": "Egreso de cuenta corriente",
              "status": false,
              "monto": "-$9,728.40",
              "saldo" : "$200,000.00"
          },
          {
              "idcorriente": "cur3",
              "fecha": "20 de septiembre 2022",
              "descripción": "Ingreso en cuenta corriente",
              "status": true,
              "monto": "$9,728.40",
              "saldo" : "$209,728.40"
          },
          {
              "idcorriente": "cur4",
              "fecha": "15 de septiembre 2022",
              "descripción": "Egreso de cuenta corriente",
              "status": false,
              "monto": "-$9,728.40",
              "saldo" : "$200,000.00"
          },
          {
              "idcorriente": "cur5",
              "fecha": "10 de septiembre 2022",
              "descripción": "Ingreso en cuenta corriente",
              "status": true,
              "monto": "$9,728.40",
              "saldo" : "$209,728.40"
          },
          {
              "idcorriente": "cur6",
              "fecha": "04 de septiembre 2022",
              "descripción": "Egreso de cuenta corriente",
              "status": false,
              "monto": "-$9,728.40",
              "saldo" : "$200,000.00"
          },
          {
              "idcorriente": "cur7",
              "fecha": "01 de septiembre 2022",
              "descripción": "Ingreso en cuenta corriente",
              "status": true,
              "monto": "$9,728.40",
              "saldo" : "$209,728.40"
          }
      ]}
  }