<svg width="16" height="16" viewBox="0 0 16 16" fill="none" xmlns="http://www.w3.org/2000/svg">
<path fill-rule="evenodd" clip-rule="evenodd" d="M9.75552 8.00024L15.6361 2.11966C16.1209 1.6349 16.1209 0.848744 15.6361 0.363988C15.1514 -0.120768 14.3652 -0.120768 13.8807 0.363988L8.00007 6.24457L2.11902 0.363763C1.63426 -0.121217 0.848326 -0.121217 0.363568 0.363539C-0.121189 0.848519 -0.121189 1.63423 0.363568 2.11921L6.24439 7.99979L0.363793 13.8806C-0.120965 14.3651 -0.120741 15.1513 0.364017 15.636C0.84855 16.1206 1.63471 16.1208 2.11947 15.6363L8.00007 9.75568L13.8809 15.6363C14.3657 16.1212 15.1516 16.1212 15.6363 15.6363C16.1213 15.1515 16.1211 14.3658 15.6363 13.881L9.75552 8.00024Z" fill="white"/>
</svg>
