<svg width="40" height="40" viewBox="0 0 40 40" fill="none" xmlns="http://www.w3.org/2000/svg">
<path d="M20 40C31.0457 40 40 31.0457 40 20C40 8.9543 31.0457 0 20 0C8.9543 0 0 8.9543 0 20C0 31.0457 8.9543 40 20 40Z" fill="#DA432C" fill-opacity="0.8"/>
<path d="M27.5 22.5C24.7425 22.5 22.5 20.2575 22.5 17.5C22.5 16.81 23.06 16.25 23.75 16.25C24.44 16.25 25 16.81 25 17.5C25 18.8775 26.12 20 27.5 20C28.88 20 30 18.8775 30 17.5C30 16.81 30.56 16.25 31.25 16.25C31.94 16.25 32.5 16.81 32.5 17.5C32.5 20.2575 30.2575 22.5 27.5 22.5Z" fill="white"/>
<path d="M12.5 22.5C9.7425 22.5 7.5 20.2575 7.5 17.5C7.5 16.81 8.06 16.25 8.75 16.25C9.44 16.25 10 16.81 10 17.5C10 18.8775 11.1225 20 12.5 20C13.8775 20 15 18.8775 15 17.5C15 16.81 15.56 16.25 16.25 16.25C16.94 16.25 17.5 16.81 17.5 17.5C17.5 20.2575 15.2575 22.5 12.5 22.5Z" fill="white"/>
<path d="M27.9551 33.295C27.6351 33.295 27.3151 33.1725 27.0701 32.93C23.2901 29.15 16.7051 29.15 12.9276 32.93C12.4401 33.4175 11.6476 33.4175 11.1601 32.93C10.6726 32.4425 10.6726 31.65 11.1601 31.1625C13.5226 28.8025 16.6601 27.5 20.0001 27.5C23.3401 27.5 26.4776 28.8025 28.8376 31.1625C29.3251 31.65 29.3251 32.4425 28.8376 32.93C28.5926 33.175 28.2751 33.295 27.9551 33.295Z" fill="white"/>
</svg>
