<svg width="18" height="18" viewBox="0 0 18 18" fill="none" xmlns="http://www.w3.org/2000/svg">
<mask id="path-1-outside-1_5864_13734" maskUnits="userSpaceOnUse" x="-0.75" y="-0.75" width="19" height="19" fill="black">
<rect fill="white" x="-0.75" y="-0.75" width="19" height="19"/>
<path fill-rule="evenodd" clip-rule="evenodd" d="M9 0.25C7.26942 0.25 5.57769 0.763179 4.13876 1.72464C2.69983 2.6861 1.57832 4.05267 0.916058 5.65152C0.253791 7.25037 0.0805121 9.00971 0.418133 10.707C0.755753 12.4044 1.58911 13.9635 2.81282 15.1872C4.03653 16.4109 5.59563 17.2442 7.29296 17.5819C8.9903 17.9195 10.7496 17.7462 12.3485 17.0839C13.9473 16.4217 15.3139 15.3002 16.2754 13.8612C17.2368 12.4223 17.75 10.7306 17.75 9C17.75 6.67936 16.8281 4.45376 15.1872 2.81282C13.5462 1.17187 11.3206 0.25 9 0.25ZM9 16.5C7.51664 16.5 6.0666 16.0601 4.83323 15.236C3.59986 14.4119 2.63856 13.2406 2.07091 11.8701C1.50325 10.4997 1.35473 8.99168 1.64411 7.53682C1.9335 6.08197 2.64781 4.74559 3.6967 3.6967C4.7456 2.64781 6.08197 1.9335 7.53683 1.64411C8.99168 1.35472 10.4997 1.50325 11.8701 2.0709C13.2406 2.63856 14.4119 3.59985 15.236 4.83322C16.0601 6.06659 16.5 7.51664 16.5 9C16.5 10.9891 15.7098 12.8968 14.3033 14.3033C12.8968 15.7098 10.9891 16.5 9 16.5ZM9.625 4H8.375V10.875H9.625V4ZM8.47915 12.908C8.63332 12.805 8.81458 12.75 9 12.75C9.24864 12.75 9.4871 12.8488 9.66291 13.0246C9.83873 13.2004 9.9375 13.4389 9.9375 13.6875C9.9375 13.8729 9.88252 14.0542 9.7795 14.2083C9.67649 14.3625 9.53007 14.4827 9.35877 14.5536C9.18746 14.6246 8.99896 14.6432 8.8171 14.607C8.63525 14.5708 8.4682 14.4815 8.33709 14.3504C8.20598 14.2193 8.11669 14.0523 8.08051 13.8704C8.04434 13.6885 8.06291 13.5 8.13386 13.3287C8.20482 13.1574 8.32498 13.011 8.47915 12.908Z"/>
</mask>
<path fill-rule="evenodd" clip-rule="evenodd" d="M9 0.25C7.26942 0.25 5.57769 0.763179 4.13876 1.72464C2.69983 2.6861 1.57832 4.05267 0.916058 5.65152C0.253791 7.25037 0.0805121 9.00971 0.418133 10.707C0.755753 12.4044 1.58911 13.9635 2.81282 15.1872C4.03653 16.4109 5.59563 17.2442 7.29296 17.5819C8.9903 17.9195 10.7496 17.7462 12.3485 17.0839C13.9473 16.4217 15.3139 15.3002 16.2754 13.8612C17.2368 12.4223 17.75 10.7306 17.75 9C17.75 6.67936 16.8281 4.45376 15.1872 2.81282C13.5462 1.17187 11.3206 0.25 9 0.25ZM9 16.5C7.51664 16.5 6.0666 16.0601 4.83323 15.236C3.59986 14.4119 2.63856 13.2406 2.07091 11.8701C1.50325 10.4997 1.35473 8.99168 1.64411 7.53682C1.9335 6.08197 2.64781 4.74559 3.6967 3.6967C4.7456 2.64781 6.08197 1.9335 7.53683 1.64411C8.99168 1.35472 10.4997 1.50325 11.8701 2.0709C13.2406 2.63856 14.4119 3.59985 15.236 4.83322C16.0601 6.06659 16.5 7.51664 16.5 9C16.5 10.9891 15.7098 12.8968 14.3033 14.3033C12.8968 15.7098 10.9891 16.5 9 16.5ZM9.625 4H8.375V10.875H9.625V4ZM8.47915 12.908C8.63332 12.805 8.81458 12.75 9 12.75C9.24864 12.75 9.4871 12.8488 9.66291 13.0246C9.83873 13.2004 9.9375 13.4389 9.9375 13.6875C9.9375 13.8729 9.88252 14.0542 9.7795 14.2083C9.67649 14.3625 9.53007 14.4827 9.35877 14.5536C9.18746 14.6246 8.99896 14.6432 8.8171 14.607C8.63525 14.5708 8.4682 14.4815 8.33709 14.3504C8.20598 14.2193 8.11669 14.0523 8.08051 13.8704C8.04434 13.6885 8.06291 13.5 8.13386 13.3287C8.20482 13.1574 8.32498 13.011 8.47915 12.908Z" fill="#C62828"/>
<path d="M4.13876 1.72464L4.02765 1.55835V1.55835L4.13876 1.72464ZM0.418133 10.707L0.61429 10.668L0.418133 10.707ZM2.81282 15.1872L2.6714 15.3286L2.81282 15.1872ZM7.29296 17.5819L7.25395 17.778L7.29296 17.5819ZM12.3485 17.0839L12.425 17.2687H12.425L12.3485 17.0839ZM16.2754 13.8612L16.4417 13.9724V13.9724L16.2754 13.8612ZM15.1872 2.81282L15.0458 2.95424L15.1872 2.81282ZM4.83323 15.236L4.94434 15.0697L4.83323 15.236ZM2.07091 11.8701L1.88613 11.9467V11.9467L2.07091 11.8701ZM11.8701 2.0709L11.9467 1.88613V1.88613L11.8701 2.0709ZM15.236 4.83322L15.4023 4.72211L15.236 4.83322ZM14.3033 14.3033L14.4447 14.4447L14.3033 14.3033ZM8.375 4V3.8H8.175V4H8.375ZM9.625 4H9.825V3.8H9.625V4ZM8.375 10.875H8.175V11.075H8.375V10.875ZM9.625 10.875V11.075H9.825V10.875H9.625ZM8.47915 12.908L8.36804 12.7417H8.36804L8.47915 12.908ZM9.7795 14.2083L9.61321 14.0972V14.0972L9.7795 14.2083ZM4.24988 1.89093C5.65592 0.951449 7.30897 0.45 9 0.45V0.05C7.22986 0.05 5.49947 0.574908 4.02765 1.55835L4.24988 1.89093ZM1.10083 5.72806C1.74796 4.16575 2.84384 2.83042 4.24988 1.89093L4.02765 1.55835C2.55583 2.54179 1.40869 3.93958 0.731282 5.57498L1.10083 5.72806ZM0.61429 10.668C0.284386 9.00948 0.453705 7.29037 1.10083 5.72806L0.731282 5.57498C0.0538778 7.21038 -0.123362 9.00993 0.221976 10.7461L0.61429 10.668ZM2.95424 15.0458C1.7585 13.85 0.944193 12.3266 0.61429 10.668L0.221976 10.7461C0.567313 12.4822 1.41972 14.0769 2.6714 15.3286L2.95424 15.0458ZM7.33198 17.3857C5.67344 17.0558 4.14998 16.2415 2.95424 15.0458L2.6714 15.3286C3.92308 16.5803 5.51782 17.4327 7.25395 17.778L7.33198 17.3857ZM12.2719 16.8992C10.7096 17.5463 8.99052 17.7156 7.33198 17.3857L7.25395 17.778C8.99008 18.1234 10.7896 17.9461 12.425 17.2687L12.2719 16.8992ZM16.1091 13.7501C15.1696 15.1562 13.8343 16.252 12.2719 16.8992L12.425 17.2687C14.0604 16.5913 15.4582 15.4442 16.4417 13.9724L16.1091 13.7501ZM17.55 9C17.55 10.691 17.0486 12.3441 16.1091 13.7501L16.4417 13.9724C17.4251 12.5005 17.95 10.7701 17.95 9H17.55ZM15.0458 2.95424C16.6492 4.55767 17.55 6.7324 17.55 9H17.95C17.95 6.62631 17.0071 4.34984 15.3286 2.67139L15.0458 2.95424ZM9 0.45C11.2676 0.45 13.4423 1.3508 15.0458 2.95424L15.3286 2.67139C13.6502 0.992944 11.3737 0.05 9 0.05V0.45ZM4.72211 15.4023C5.98837 16.2484 7.47709 16.7 9 16.7V16.3C7.5562 16.3 6.14482 15.8719 4.94434 15.0697L4.72211 15.4023ZM1.88613 11.9467C2.46893 13.3537 3.45585 14.5562 4.72211 15.4023L4.94434 15.0697C3.74386 14.2676 2.8082 13.1275 2.25568 11.7936L1.88613 11.9467ZM1.44796 7.4978C1.15085 8.99146 1.30334 10.5397 1.88613 11.9467L2.25568 11.7936C1.70316 10.4597 1.5586 8.9919 1.84027 7.57584L1.44796 7.4978ZM3.55528 3.55528C2.47842 4.63214 1.74506 6.00415 1.44796 7.4978L1.84027 7.57584C2.12194 6.15978 2.8172 4.85904 3.83812 3.83812L3.55528 3.55528ZM7.49781 1.44795C6.00416 1.74506 4.63215 2.47841 3.55528 3.55528L3.83812 3.83812C4.85905 2.8172 6.15978 2.12194 7.57585 1.84027L7.49781 1.44795ZM11.9467 1.88613C10.5397 1.30333 8.99146 1.15085 7.49781 1.44795L7.57585 1.84027C8.99191 1.5586 10.4597 1.70316 11.7936 2.25568L11.9467 1.88613ZM15.4023 4.72211C14.5562 3.45585 13.3537 2.46892 11.9467 1.88613L11.7936 2.25568C13.1275 2.8082 14.2676 3.74386 15.0697 4.94434L15.4023 4.72211ZM16.7 9C16.7 7.47708 16.2484 5.98837 15.4023 4.72211L15.0697 4.94434C15.8719 6.14482 16.3 7.5562 16.3 9H16.7ZM14.4447 14.4447C15.8888 13.0007 16.7 11.0422 16.7 9H16.3C16.3 10.9361 15.5309 12.7929 14.1619 14.1619L14.4447 14.4447ZM9 16.7C11.0422 16.7 13.0007 15.8888 14.4447 14.4447L14.1619 14.1619C12.7929 15.5309 10.9361 16.3 9 16.3V16.7ZM8.375 4.2H9.625V3.8H8.375V4.2ZM8.575 10.875V4H8.175V10.875H8.575ZM9.625 10.675H8.375V11.075H9.625V10.675ZM9.425 4V10.875H9.825V4H9.425ZM9 12.55C8.77502 12.55 8.5551 12.6167 8.36804 12.7417L8.59027 13.0743C8.71155 12.9933 8.85414 12.95 9 12.95V12.55ZM9.80433 12.8832C9.59101 12.6698 9.30168 12.55 9 12.55V12.95C9.1956 12.95 9.38318 13.0277 9.52149 13.166L9.80433 12.8832ZM10.1375 13.6875C10.1375 13.3858 10.0177 13.0965 9.80433 12.8832L9.52149 13.166C9.6598 13.3043 9.7375 13.4919 9.7375 13.6875H10.1375ZM9.9458 14.3195C10.0708 14.1324 10.1375 13.9125 10.1375 13.6875H9.7375C9.7375 13.8334 9.69425 13.976 9.61321 14.0972L9.9458 14.3195ZM9.4353 14.7384C9.64315 14.6523 9.82081 14.5065 9.9458 14.3195L9.61321 14.0972C9.53217 14.2185 9.41699 14.313 9.28223 14.3689L9.4353 14.7384ZM8.77808 14.8031C8.99874 14.847 9.22745 14.8245 9.4353 14.7384L9.28223 14.3689C9.14747 14.4247 8.99918 14.4393 8.85612 14.4108L8.77808 14.8031ZM8.19567 14.4918C8.35475 14.6509 8.55743 14.7593 8.77808 14.8031L8.85612 14.4108C8.71306 14.3824 8.58165 14.3121 8.47851 14.209L8.19567 14.4918ZM7.88436 13.9094C7.92825 14.1301 8.03658 14.3328 8.19567 14.4918L8.47851 14.209C8.37537 14.1058 8.30513 13.9744 8.27667 13.8314L7.88436 13.9094ZM7.94909 13.2522C7.86299 13.46 7.84047 13.6888 7.88436 13.9094L8.27667 13.8314C8.24821 13.6883 8.26282 13.54 8.31864 13.4053L7.94909 13.2522ZM8.36804 12.7417C8.18098 12.8667 8.03518 13.0443 7.94909 13.2522L8.31864 13.4053C8.37446 13.2705 8.46899 13.1553 8.59027 13.0743L8.36804 12.7417Z" fill="#C62828" mask="url(#path-1-outside-1_5864_13734)"/>
</svg>
