<svg width="24" height="24" viewBox="0 0 24 24" fill="none" xmlns="http://www.w3.org/2000/svg">
<path d="M12.4592 1.66043C12.3261 1.55655 12.1621 1.50012 11.9932 1.50012C11.8243 1.50012 11.6603 1.55655 11.5272 1.66043L0.75 10.0646L1.68203 11.2434L3 10.2158V19.5001C3.00081 19.8976 3.15911 20.2787 3.44024 20.5598C3.72137 20.841 4.10242 20.9993 4.5 21.0001H19.5C19.8976 20.9993 20.2787 20.8411 20.5599 20.5599C20.841 20.2788 20.9993 19.8977 21 19.5001V10.2226L22.318 11.2501L23.25 10.0712L12.4592 1.66043ZM13.5 19.5001H10.5V13.5001H13.5V19.5001Z" fill="#1148C6"/>
</svg>
