<svg width="24" height="24" viewBox="0 0 24 24" fill="none" xmlns="http://www.w3.org/2000/svg">
<path fill-rule="evenodd" clip-rule="evenodd" d="M1.5 1.5H3V21H22.5V22.5H3C2.60218 22.5 2.22064 22.342 1.93934 22.0607C1.65804 21.7794 1.5 21.3978 1.5 21V1.5ZM17.25 6.75H22.5V12H21V9.3075L14.7825 15.5325C14.7128 15.6028 14.6298 15.6586 14.5384 15.6967C14.447 15.7347 14.349 15.7543 14.25 15.7543C14.151 15.7543 14.053 15.7347 13.9616 15.6967C13.8702 15.6586 13.7872 15.6028 13.7175 15.5325L10.5 12.3075L5.5575 17.25L4.5 16.1925L9.9675 10.7175C10.0372 10.6472 10.1202 10.5914 10.2116 10.5533C10.303 10.5153 10.401 10.4957 10.5 10.4957C10.599 10.4957 10.697 10.5153 10.7884 10.5533C10.8798 10.5914 10.9628 10.6472 11.0325 10.7175L14.25 13.9425L19.9425 8.25H17.25V6.75Z" fill="#191A1B"/>
</svg>
