<svg width="45" height="45" viewBox="0 0 45 45" fill="none" xmlns="http://www.w3.org/2000/svg">
<circle cx="22.5" cy="22.5" r="22.5" fill="#EEF5FE"/>
<path d="M13.9928 30.6087C12.1153 30.6087 10.5791 29.0725 10.5791 27.195V18.6608C10.5791 16.7832 12.1153 15.2471 13.9928 15.2471H20.8202V16.9539H13.9928C13.0256 16.9539 12.2859 17.6935 12.2859 18.6608V27.195C12.2859 28.1622 13.0825 28.9018 13.9928 28.9018V30.6087Z" fill="#2765F5"/>
<path d="M20.8201 30.6082H13.9927C13.9927 28.9014 13.9927 30.6082 13.9927 28.9014H20.8201V30.6082Z" fill="#2765F5"/>
<path d="M21.3889 34.8762L19.9097 34.0228L22.8682 28.9023H27.6473C28.6146 28.9023 29.3542 28.1627 29.3542 27.1954V19.5146H31.061V27.1954C31.061 29.073 29.5249 30.6091 27.6473 30.6091H23.8923L21.3889 34.8762Z" fill="#2765F5"/>
<path d="M17.4066 23.782C17.878 23.782 18.2601 23.3999 18.2601 22.9286C18.2601 22.4573 17.878 22.0752 17.4066 22.0752C16.9353 22.0752 16.5532 22.4573 16.5532 22.9286C16.5532 23.3999 16.9353 23.782 17.4066 23.782Z" fill="#2765F5"/>
<path d="M20.8202 23.782C21.2916 23.782 21.6736 23.3999 21.6736 22.9286C21.6736 22.4573 21.2916 22.0752 20.8202 22.0752C20.3489 22.0752 19.9668 22.4573 19.9668 22.9286C19.9668 23.3999 20.3489 23.782 20.8202 23.782Z" fill="#2765F5"/>
<path d="M24.2338 23.782C24.7051 23.782 25.0872 23.3999 25.0872 22.9286C25.0872 22.4573 24.7051 22.0752 24.2338 22.0752C23.7625 22.0752 23.3804 22.4573 23.3804 22.9286C23.3804 23.3999 23.7625 23.782 24.2338 23.782Z" fill="#2765F5"/>
<path d="M32.7679 10.126H24.2337C23.2665 10.126 22.5269 10.8656 22.5269 11.8328V16.9534C22.5269 17.9206 23.2665 18.6602 24.2337 18.6602H26.2819L27.7612 21.2205L29.2404 20.367L27.2491 16.9534H24.1768V11.8328H32.711V16.9534H30.1508V18.6602H32.711C33.6782 18.6602 34.4179 17.9206 34.4179 16.9534V11.8328C34.4748 10.8656 33.6782 10.126 32.7679 10.126Z" fill="#2765F5"/>
</svg>
