<svg width="35" height="25" viewBox="0 0 35 25" fill="none" xmlns="http://www.w3.org/2000/svg">
<mask id="path-1-outside-1_6703_163657" maskUnits="userSpaceOnUse" x="-0.5625" y="-0.6875" width="36" height="26" fill="black">
<rect fill="white" x="-0.5625" y="-0.6875" width="36" height="26"/>
<path fill-rule="evenodd" clip-rule="evenodd" d="M2.875 0.3125H32.125C32.7715 0.3125 33.3915 0.569307 33.8486 1.02643C34.3057 1.48355 34.5625 2.10353 34.5625 2.75V22.25C34.5625 22.8965 34.3057 23.5165 33.8486 23.9736C33.3915 24.4307 32.7715 24.6875 32.125 24.6875H2.875C2.22853 24.6875 1.60855 24.4307 1.15143 23.9736C0.694307 23.5165 0.4375 22.8965 0.4375 22.25V2.75C0.4375 2.10353 0.694307 1.48355 1.15143 1.02643C1.60855 0.569307 2.22853 0.3125 2.875 0.3125ZM32.125 6.40625V2.75H2.875V6.40625H32.125ZM2.875 8.84375V22.25H32.125V8.84375H2.875ZM5.3125 17.375H17.5V19.8125H5.3125V17.375Z"/>
</mask>
<path fill-rule="evenodd" clip-rule="evenodd" d="M2.875 0.3125H32.125C32.7715 0.3125 33.3915 0.569307 33.8486 1.02643C34.3057 1.48355 34.5625 2.10353 34.5625 2.75V22.25C34.5625 22.8965 34.3057 23.5165 33.8486 23.9736C33.3915 24.4307 32.7715 24.6875 32.125 24.6875H2.875C2.22853 24.6875 1.60855 24.4307 1.15143 23.9736C0.694307 23.5165 0.4375 22.8965 0.4375 22.25V2.75C0.4375 2.10353 0.694307 1.48355 1.15143 1.02643C1.60855 0.569307 2.22853 0.3125 2.875 0.3125ZM32.125 6.40625V2.75H2.875V6.40625H32.125ZM2.875 8.84375V22.25H32.125V8.84375H2.875ZM5.3125 17.375H17.5V19.8125H5.3125V17.375Z" fill="white"/>
<path d="M33.8486 23.9736L33.7071 23.8321V23.8322L33.8486 23.9736ZM1.15143 23.9736L1.29285 23.8322L1.29285 23.8321L1.15143 23.9736ZM32.125 2.75H32.325V2.55H32.125V2.75ZM32.125 6.40625V6.60625H32.325V6.40625H32.125ZM2.875 2.75V2.55H2.675V2.75H2.875ZM2.875 6.40625H2.675V6.60625H2.875V6.40625ZM2.875 22.25H2.675V22.45H2.875V22.25ZM2.875 8.84375V8.64375H2.675V8.84375H2.875ZM32.125 22.25V22.45H32.325V22.25H32.125ZM32.125 8.84375H32.325V8.64375H32.125V8.84375ZM17.5 17.375H17.7V17.175H17.5V17.375ZM5.3125 17.375V17.175H5.1125V17.375H5.3125ZM17.5 19.8125V20.0125H17.7V19.8125H17.5ZM5.3125 19.8125H5.1125V20.0125H5.3125V19.8125ZM32.125 0.1125H2.875V0.5125H32.125V0.1125ZM33.99 0.885006C33.4954 0.390379 32.8245 0.1125 32.125 0.1125V0.5125C32.7184 0.5125 33.2875 0.748236 33.7071 1.16785L33.99 0.885006ZM34.7625 2.75C34.7625 2.05049 34.4846 1.37963 33.99 0.885006L33.7071 1.16785C34.1268 1.58746 34.3625 2.15658 34.3625 2.75H34.7625ZM34.7625 22.25V2.75H34.3625V22.25H34.7625ZM33.99 24.115C34.4846 23.6204 34.7625 22.9495 34.7625 22.25H34.3625C34.3625 22.8434 34.1268 23.4125 33.7071 23.8321L33.99 24.115ZM32.125 24.8875C32.8245 24.8875 33.4954 24.6096 33.99 24.115L33.7071 23.8322C33.2875 24.2518 32.7184 24.4875 32.125 24.4875V24.8875ZM2.875 24.8875H32.125V24.4875H2.875V24.8875ZM1.01001 24.115C1.50463 24.6096 2.17549 24.8875 2.875 24.8875V24.4875C2.28158 24.4875 1.71246 24.2518 1.29285 23.8322L1.01001 24.115ZM0.2375 22.25C0.2375 22.9495 0.515379 23.6204 1.01001 24.115L1.29285 23.8321C0.873236 23.4125 0.6375 22.8434 0.6375 22.25H0.2375ZM0.2375 2.75V22.25H0.6375V2.75H0.2375ZM1.01001 0.885006C0.515379 1.37963 0.2375 2.05049 0.2375 2.75H0.6375C0.6375 2.15658 0.873236 1.58746 1.29285 1.16785L1.01001 0.885006ZM2.875 0.1125C2.17549 0.1125 1.50463 0.390379 1.01001 0.885006L1.29285 1.16785C1.71246 0.748236 2.28158 0.5125 2.875 0.5125V0.1125ZM31.925 2.75V6.40625H32.325V2.75H31.925ZM2.875 2.95H32.125V2.55H2.875V2.95ZM3.075 6.40625V2.75H2.675V6.40625H3.075ZM32.125 6.20625H2.875V6.60625H32.125V6.20625ZM3.075 22.25V8.84375H2.675V22.25H3.075ZM32.125 22.05H2.875V22.45H32.125V22.05ZM31.925 8.84375V22.25H32.325V8.84375H31.925ZM2.875 9.04375H32.125V8.64375H2.875V9.04375ZM17.5 17.175H5.3125V17.575H17.5V17.175ZM17.7 19.8125V17.375H17.3V19.8125H17.7ZM5.3125 20.0125H17.5V19.6125H5.3125V20.0125ZM5.1125 17.375V19.8125H5.5125V17.375H5.1125Z" fill="white" mask="url(#path-1-outside-1_6703_163657)"/>
</svg>
