<svg width="40" height="40" viewBox="0 0 40 40" fill="none" xmlns="http://www.w3.org/2000/svg">
<circle cx="20" cy="20" r="20" fill="#EEF5FE"/>
<mask id="mask0_1297_8592" style="mask-type:alpha" maskUnits="userSpaceOnUse" x="9" y="9" width="22" height="22">
<path d="M21.324 30.695L19.9999 29.9312L23.0555 24.5839H27.6388C28.5046 24.5839 29.1666 23.9219 29.1666 23.0562V12.3617C29.1666 11.496 28.5046 10.8339 27.6388 10.8339H12.361C11.4953 10.8339 10.8333 11.496 10.8333 12.3617V23.0562C10.8333 23.9219 11.4953 24.5839 12.361 24.5839V26.1117C10.6805 26.1117 9.30548 24.7367 9.30548 23.0562V12.3617C9.30548 10.6812 10.6805 9.30615 12.361 9.30615H27.6388C29.3194 9.30615 30.6944 10.6812 30.6944 12.3617V23.0562C30.6944 24.7367 29.3194 26.1117 27.6388 26.1117H23.9212L21.324 30.695Z" fill="url(#paint0_linear_1297_8592)"/>
<path d="M12.361 24.584H19.9999V26.1118H12.361C12.361 24.584 12.361 26.1118 12.361 24.584Z" fill="url(#paint1_linear_1297_8592)"/>
</mask>
<g mask="url(#mask0_1297_8592)">
<path d="M9.30548 9.30615H30.6944V30.695H9.30548V9.30615Z" fill="url(#paint2_linear_1297_8592)"/>
</g>
<path d="M15.4166 21.529V23.0567H16.9443V21.529C16.9443 21.1216 17.3008 20.7651 17.7082 20.7651H22.2916C22.699 20.7651 23.0555 21.1216 23.0555 21.529V23.0567H24.5832V21.529C24.5832 20.2558 23.5647 19.2373 22.2916 19.2373H17.7082C16.4351 19.2373 15.4166 20.2558 15.4166 21.529ZM19.9999 12.3623C18.3193 12.3623 16.9443 13.7373 16.9443 15.4179C16.9443 17.0984 18.3193 18.4734 19.9999 18.4734C21.6805 18.4734 23.0555 17.0984 23.0555 15.4179C23.0555 13.7373 21.6805 12.3623 19.9999 12.3623ZM19.9999 16.9456C19.1342 16.9456 18.4721 16.2836 18.4721 15.4179C18.4721 14.5521 19.1342 13.8901 19.9999 13.8901C20.8656 13.8901 21.5277 14.5521 21.5277 15.4179C21.5277 16.2836 20.8147 16.9456 19.9999 16.9456Z" fill="#041F68"/>
<defs>
<linearGradient id="paint0_linear_1297_8592" x1="9.30548" y1="21.3375" x2="30.695" y2="21.3282" gradientUnits="userSpaceOnUse">
<stop stop-color="#233E99"/>
<stop offset="1" stop-color="#2765F5"/>
</linearGradient>
<linearGradient id="paint1_linear_1297_8592" x1="16.1805" y1="25.3479" x2="19.4663" y2="25.3479" gradientUnits="userSpaceOnUse">
<stop stop-color="white"/>
<stop offset="1" stop-color="white" stop-opacity="0"/>
</linearGradient>
<linearGradient id="paint2_linear_1297_8592" x1="9.28614" y1="30.686" x2="30.675" y2="9.29706" gradientUnits="userSpaceOnUse">
<stop offset="0.1" stop-color="#2765F5"/>
<stop offset="0.9" stop-color="#233E99"/>
</linearGradient>
</defs>
</svg>
