<svg width="40" height="40" viewBox="0 0 40 40" fill="none" xmlns="http://www.w3.org/2000/svg">
<circle cx="20" cy="20" r="20" fill="#EEF5FE"/>
<mask id="mask0_1102_17720" style="mask-type:alpha" maskUnits="userSpaceOnUse" x="9" y="9" width="21" height="19">
<path d="M15.5644 25.9008H10.7808V15.5752H28.4818V21.4755H29.9569V15.5752C29.9569 14.7393 29.3177 14.1001 28.4818 14.1001H24.0566V11.1499C24.0566 10.314 23.4174 9.6748 22.5815 9.6748H16.6811C15.8452 9.6748 15.206 10.314 15.206 11.1499V14.1001H10.7808C9.94487 14.1001 9.30566 14.7393 9.30566 15.5752V25.9008C9.30566 26.7367 9.94487 27.3759 10.7808 27.3759H15.5644V25.9008ZM16.6811 11.1499H22.5815V14.1001H16.6811V11.1499Z" fill="url(#paint0_linear_1102_17720)"/>
<rect x="15.4961" y="25.8984" width="4.86871" height="1.4774" fill="url(#paint1_linear_1102_17720)"/>
</mask>
<g mask="url(#mask0_1102_17720)">
<path d="M9.30566 9.30615H30.6946V30.695H9.30566V9.30615Z" fill="url(#paint2_linear_1102_17720)"/>
</g>
<path d="M22.5813 27.3764H27.8916L25.974 29.2941L27.0065 30.3266L30.6943 26.6389L27.0065 22.9512L25.974 23.9837L27.8916 25.9013H22.5813V27.3764ZM24.0564 21.4761H18.746L20.6636 19.5584L19.6311 18.5259L15.9434 22.2136L19.6311 25.9013L20.6636 24.8688L18.746 22.9512H24.0564V21.4761Z" fill="#041F68"/>
<defs>
<linearGradient id="paint0_linear_1102_17720" x1="9.30566" y1="19.6317" x2="29.9575" y2="19.6213" gradientUnits="userSpaceOnUse">
<stop stop-color="#233E99"/>
<stop offset="1" stop-color="#2765F5"/>
</linearGradient>
<linearGradient id="paint1_linear_1102_17720" x1="15.7467" y1="26.6998" x2="20.2357" y2="26.6998" gradientUnits="userSpaceOnUse">
<stop stop-color="white"/>
<stop offset="1" stop-color="white" stop-opacity="0"/>
</linearGradient>
<linearGradient id="paint2_linear_1102_17720" x1="9.32353" y1="30.6966" x2="30.7124" y2="9.30767" gradientUnits="userSpaceOnUse">
<stop offset="0.1" stop-color="#2765F5"/>
<stop offset="0.9" stop-color="#233E99"/>
</linearGradient>
</defs>
</svg>
