<svg width="12" height="10" viewBox="0 0 12 10" fill="none" xmlns="http://www.w3.org/2000/svg">
<path d="M7 0L6.285 0.6965L10.075 4.5H0V5.5H10.075L6.285 9.2865L7 10L12 5L7 0Z" fill="#2765F5"/>
</svg>
