<svg width="40" height="40" viewBox="0 0 40 40" fill="none" xmlns="http://www.w3.org/2000/svg">
<circle cx="20" cy="20" r="20" fill="#EEF5FE"/>
<mask id="mask0_1125_4498" style="mask-type:alpha" maskUnits="userSpaceOnUse" x="9" y="10" width="22" height="20">
<path d="M30.6943 23.0567H10.8333C9.96752 23.0567 9.30548 22.3946 9.30548 21.5289V12.3622C9.30548 11.4965 9.96752 10.8345 10.8333 10.8345H29.1665C30.0323 10.8345 30.6943 11.4965 30.6943 12.3622V13.4104H29.1665V12.3622H10.8333V21.5289H30.6943V23.0567ZM9.30548 24.5844H30.6943V26.1122H9.30548V24.5844ZM9.30548 27.64H30.6943V29.1678H9.30548V27.64Z" fill="url(#paint0_linear_1125_4498)"/>
<path d="M29.1666 21.1884H30.6943V13.4107H29.1666V21.1884Z" fill="url(#paint1_linear_1125_4498)"/>
</mask>
<g mask="url(#mask0_1125_4498)">
<path d="M9.30548 9.30664H30.6944V30.6955H9.30548V9.30664Z" fill="url(#paint2_linear_1125_4498)"/>
</g>
<path d="M20 20.0017C18.3194 20.0017 16.9444 18.6267 16.9444 16.9462C16.9444 15.2656 18.3194 13.8906 20 13.8906C21.6805 13.8906 23.0555 15.2656 23.0555 16.9462C23.0555 18.6267 21.6805 20.0017 20 20.0017ZM20 15.4184C19.1342 15.4184 18.4722 16.0804 18.4722 16.9462C18.4722 17.8119 19.1342 18.4739 20 18.4739C20.8657 18.4739 21.5277 17.8119 21.5277 16.9462C21.5277 16.0804 20.8148 15.4184 20 15.4184ZM26.111 15.4184C25.2453 15.4184 24.5833 16.0804 24.5833 16.9462C24.5833 17.8119 25.2453 18.4739 26.111 18.4739C26.9768 18.4739 27.6388 17.8119 27.6388 16.9462C27.6388 16.0804 26.9259 15.4184 26.111 15.4184ZM13.8889 15.4184C13.0231 15.4184 12.3611 16.0804 12.3611 16.9462C12.3611 17.8119 13.0231 18.4739 13.8889 18.4739C14.7546 18.4739 15.4166 17.8119 15.4166 16.9462C15.4166 16.0804 14.7037 15.4184 13.8889 15.4184Z" fill="#041F68"/>
<defs>
<linearGradient id="paint0_linear_1125_4498" x1="9.30548" y1="21.147" x2="30.6949" y2="21.1362" gradientUnits="userSpaceOnUse">
<stop stop-color="#233E99"/>
<stop offset="1" stop-color="#2765F5"/>
</linearGradient>
<linearGradient id="paint1_linear_1125_4498" x1="29.9305" y1="13.4106" x2="29.9305" y2="21.1884" gradientUnits="userSpaceOnUse">
<stop stop-color="white"/>
<stop offset="0.830131" stop-color="white" stop-opacity="0"/>
</linearGradient>
<linearGradient id="paint2_linear_1125_4498" x1="9.28614" y1="30.7054" x2="30.675" y2="9.31653" gradientUnits="userSpaceOnUse">
<stop offset="0.1" stop-color="#2765F5"/>
<stop offset="0.9" stop-color="#233E99"/>
</linearGradient>
</defs>
</svg>
