<svg width="40" height="40" viewBox="0 0 40 40" fill="none" xmlns="http://www.w3.org/2000/svg">
<circle cx="20" cy="20" r="20" fill="#EEF5FE"/>
<mask id="mask0_404_4151" style="mask-type:alpha" maskUnits="userSpaceOnUse" x="9" y="9" width="22" height="22">
<path d="M21.3232 30.6955L19.9991 29.9316L23.0547 24.5844H27.638C28.5038 24.5844 29.1658 23.9224 29.1658 23.0566V12.3622C29.1658 11.4965 28.5038 10.8344 27.638 10.8344H12.3602C11.4945 10.8344 10.8325 11.4965 10.8325 12.3622V23.0566C10.8325 23.9224 11.4945 24.5844 12.3602 24.5844V26.1122C10.6797 26.1122 9.30469 24.7372 9.30469 23.0566V12.3622C9.30469 10.6816 10.6797 9.30664 12.3602 9.30664H27.638C29.3186 9.30664 30.6936 10.6816 30.6936 12.3622V23.0566C30.6936 24.7372 29.3186 26.1122 27.638 26.1122H23.9204L21.3232 30.6955Z" fill="url(#paint0_linear_404_4151)"/>
<path d="M12.3594 24.584H19.9983V26.1118H12.3594C12.3594 24.584 12.3594 26.1118 12.3594 24.584Z" fill="url(#paint1_linear_404_4151)"/>
</mask>
<g mask="url(#mask0_404_4151)">
<path d="M9.30469 9.30664H30.6936V30.6955H9.30469V9.30664Z" fill="url(#paint2_linear_404_4151)"/>
</g>
<path d="M15.416 21.5299V23.0577H16.9438V21.5299C16.9438 21.1225 17.3003 20.7661 17.7077 20.7661H22.291C22.6984 20.7661 23.0549 21.1225 23.0549 21.5299V23.0577H24.5827V21.5299C24.5827 20.2568 23.5642 19.2383 22.291 19.2383H17.7077C16.4345 19.2383 15.416 20.2568 15.416 21.5299ZM19.9993 12.3633C18.3188 12.3633 16.9438 13.7383 16.9438 15.4188C16.9438 17.0994 18.3188 18.4744 19.9993 18.4744C21.6799 18.4744 23.0549 17.0994 23.0549 15.4188C23.0549 13.7383 21.6799 12.3633 19.9993 12.3633ZM19.9993 16.9466C19.1336 16.9466 18.4716 16.2846 18.4716 15.4188C18.4716 14.5531 19.1336 13.8911 19.9993 13.8911C20.8651 13.8911 21.5271 14.5531 21.5271 15.4188C21.5271 16.2846 20.8142 16.9466 19.9993 16.9466Z" fill="#041F68"/>
<defs>
<linearGradient id="paint0_linear_404_4151" x1="9.30469" y1="21.3379" x2="30.6942" y2="21.3287" gradientUnits="userSpaceOnUse">
<stop stop-color="#233E99"/>
<stop offset="1" stop-color="#2765F5"/>
</linearGradient>
<linearGradient id="paint1_linear_404_4151" x1="16.1788" y1="25.3479" x2="19.4647" y2="25.3479" gradientUnits="userSpaceOnUse">
<stop stop-color="white"/>
<stop offset="1" stop-color="white" stop-opacity="0"/>
</linearGradient>
<linearGradient id="paint2_linear_404_4151" x1="9.28535" y1="30.6864" x2="30.6742" y2="9.29755" gradientUnits="userSpaceOnUse">
<stop offset="0.1" stop-color="#2765F5"/>
<stop offset="0.9" stop-color="#233E99"/>
</linearGradient>
</defs>
</svg>
