<svg width="16" height="16" viewBox="0 0 16 16" fill="none" xmlns="http://www.w3.org/2000/svg">
<path fill-rule="evenodd" clip-rule="evenodd" d="M14.1877 8.42669C14.1877 8.28607 14.1877 8.14544 14.1877 7.99919C14.1877 7.85294 14.1877 7.71232 14.1877 7.56607L15.2677 6.61544C15.6758 6.25389 15.7658 5.65183 15.4815 5.18669L14.154 2.93669C13.8852 2.47402 13.3278 2.26468 12.8209 2.43607L11.454 2.89732C11.2185 2.73806 10.9723 2.59522 10.7171 2.46982L10.4359 1.05232C10.3297 0.517813 9.85572 0.136252 9.31088 0.146694H6.67275C6.1279 0.136252 5.65392 0.517813 5.54775 1.05232L5.2665 2.46982C5.00765 2.59295 4.75768 2.73391 4.51838 2.89169L3.17963 2.40794C2.66594 2.2414 2.10638 2.46333 1.8465 2.93669L0.519001 5.18669C0.251347 5.65058 0.347822 6.23885 0.749626 6.59294L1.81275 7.57169C1.81275 7.71232 1.81275 7.85294 1.81275 7.99919C1.81275 8.14544 1.81275 8.28607 1.81275 8.43232L0.749626 9.37732C0.332955 9.73506 0.235471 10.3414 0.519001 10.8117L1.8465 13.0617C2.11528 13.5244 2.67274 13.7337 3.17963 13.5623L4.5465 13.1011C4.78201 13.2603 5.02822 13.4032 5.28338 13.5286L5.56463 14.9461C5.67079 15.4806 6.14478 15.8621 6.68963 15.8517H9.34463C9.88947 15.8621 10.3635 15.4806 10.4696 14.9461L10.7509 13.5286C11.0097 13.4054 11.2597 13.2645 11.499 13.1067L12.8603 13.5679C13.3566 13.7174 13.8909 13.5084 14.154 13.0617L15.4815 10.8117C15.7492 10.3478 15.6527 9.75954 15.2509 9.40544L14.1877 8.42669ZM13.1809 12.4992L11.2515 11.8467C10.7985 12.2259 10.2826 12.5229 9.72713 12.7242L9.32775 14.7492H6.67275L6.27338 12.7523C5.722 12.5471 5.21013 12.2483 4.76025 11.8692L2.81963 12.4992L1.49213 10.2492L3.02775 8.90482C2.9241 8.32252 2.9241 7.72649 3.02775 7.14419L1.49213 5.74919L2.81963 3.49919L4.749 4.15169C5.20203 3.77249 5.71794 3.47551 6.27338 3.27419L6.67275 1.24919H9.32775L9.72713 3.24607C10.2785 3.4513 10.7904 3.75005 11.2403 4.12919L13.1809 3.49919L14.5084 5.74919L12.9728 7.09919C13.0765 7.68148 13.0765 8.27753 12.9728 8.85982L14.5084 10.2492L13.1809 12.4992ZM8.00025 11.3742C6.13629 11.3742 4.62525 9.86316 4.62525 7.99919C4.62525 6.13523 6.13629 4.62419 8.00025 4.62419C9.86421 4.62419 11.3753 6.13523 11.3753 7.99919C11.3844 8.89706 11.0317 9.76081 10.3968 10.3957C9.76187 11.0307 8.89812 11.3833 8.00025 11.3742ZM8.00025 5.74919C7.39933 5.73519 6.81887 5.96775 6.39384 6.39278C5.96881 6.81781 5.73625 7.39827 5.75025 7.99919C5.73625 8.60011 5.96881 9.18058 6.39384 9.60561C6.81887 10.0306 7.39933 10.2632 8.00025 10.2492C8.60117 10.2632 9.18164 10.0306 9.60667 9.60561C10.0317 9.18058 10.2643 8.60011 10.2503 7.99919C10.2643 7.39827 10.0317 6.81781 9.60667 6.39278C9.18164 5.96775 8.60117 5.73519 8.00025 5.74919Z" fill="#2765F5"/>
</svg>
