<svg width="48" height="48" viewBox="0 0 48 48" fill="none" xmlns="http://www.w3.org/2000/svg">
<g clip-path="url(#clip0_1990_109791)">
<mask id="mask0_1990_109791" style="mask-type:alpha" maskUnits="userSpaceOnUse" x="4" y="1" width="45" height="44">
<path d="M20.7066 44.0567C9.10422 41.0444 2.14492 29.1955 5.15918 17.5859L8.15979 18.365C5.58727 28.2732 11.5841 38.4834 21.4861 41.0543C24.7333 41.8974 28.0132 41.8184 31.0459 40.982C31.9363 43.9812 31.0459 40.982 31.9363 43.9812C28.2419 45.0517 24.3073 44.9916 20.7066 44.0567Z" fill="url(#paint0_linear_1990_109791)"/>
<path d="M35.8047 39.0711C41.3897 35.8502 45.1704 29.8111 45.1704 22.9313C45.1704 19.7259 44.3437 16.5205 42.6903 13.6252L45.3771 12.0742C51.3706 22.4143 47.8571 35.7531 37.4201 41.7503C35.8047 39.0711 37.4202 41.7503 35.8047 39.0711Z" fill="url(#paint1_linear_1990_109791)"/>
<path d="M26.5703 1.2168C18.9234 1.2168 11.8965 5.24945 7.96973 11.7637L10.4498 13.6249C15.6167 4.73243 26.9836 1.63039 35.8706 6.80044C37.3173 7.62765 38.5573 8.55825 39.694 9.79906L41.8641 7.62767C37.834 3.49163 32.2538 1.2168 26.5703 1.2168Z" fill="url(#paint2_linear_1990_109791)"/>
</mask>
<g mask="url(#mask0_1990_109791)">
<path d="M4.29785 1.2168H48.2979V45.2168H4.29785V1.2168Z" fill="url(#paint3_linear_1990_109791)"/>
</g>
<path d="M23.3176 31.2258L15.6045 23.5927L18.0727 21.1171L23.3176 26.3778L34.7329 15.0312L37.2011 17.5068L23.3176 31.2258Z" fill="#041F68"/>
</g>
<defs>
<linearGradient id="paint0_linear_1990_109791" x1="9.31101" y1="30.5808" x2="26.707" y2="41.8081" gradientUnits="userSpaceOnUse">
<stop stop-color="white"/>
<stop offset="1" stop-color="white" stop-opacity="0"/>
</linearGradient>
<linearGradient id="paint1_linear_1990_109791" x1="39.6612" y1="39.0936" x2="47.1872" y2="17.3794" gradientUnits="userSpaceOnUse">
<stop stop-color="white"/>
<stop offset="0.96868" stop-color="white" stop-opacity="0"/>
</linearGradient>
<linearGradient id="paint2_linear_1990_109791" x1="24.9169" y1="1.2168" x2="12.1488" y2="10.2233" gradientUnits="userSpaceOnUse">
<stop stop-color="white"/>
<stop offset="0.924716" stop-color="white" stop-opacity="0"/>
</linearGradient>
<linearGradient id="paint3_linear_1990_109791" x1="4.25807" y1="45.1981" x2="48.2581" y2="1.1981" gradientUnits="userSpaceOnUse">
<stop offset="0.1" stop-color="#2765F5"/>
<stop offset="0.9" stop-color="#233E99"/>
</linearGradient>
<clipPath id="clip0_1990_109791">
<rect width="48" height="48" fill="white"/>
</clipPath>
</defs>
</svg>
