<svg width="40" height="40" viewBox="0 0 40 40" fill="none" xmlns="http://www.w3.org/2000/svg">
<path d="M20 40C31.0457 40 40 31.0457 40 20C40 8.9543 31.0457 0 20 0C8.9543 0 0 8.9543 0 20C0 31.0457 8.9543 40 20 40Z" fill="#DA432C" fill-opacity="0.72"/>
<path d="M27.9551 30.795C27.6351 30.795 27.3151 30.6725 27.0701 30.43C23.2901 26.65 16.7051 26.65 12.9276 30.43C12.4401 30.9175 11.6476 30.9175 11.1601 30.43C10.6726 29.9425 10.6726 29.15 11.1601 28.6625C13.5226 26.3025 16.6601 25 20.0001 25C23.3401 25 26.4776 26.3025 28.8376 28.6625C29.3251 29.15 29.3251 29.9425 28.8376 30.43C28.5951 30.675 28.2751 30.795 27.9551 30.795Z" fill="white"/>
<path d="M12.5 17.5C13.8807 17.5 15 16.3807 15 15C15 13.6193 13.8807 12.5 12.5 12.5C11.1193 12.5 10 13.6193 10 15C10 16.3807 11.1193 17.5 12.5 17.5Z" fill="white"/>
<path d="M27.5 17.5C28.8807 17.5 30 16.3807 30 15C30 13.6193 28.8807 12.5 27.5 12.5C26.1193 12.5 25 13.6193 25 15C25 16.3807 26.1193 17.5 27.5 17.5Z" fill="white"/>
</svg>
